year,name,teams,positions,games,hits,at_bats,runs,home_runs,rbis,stolen_bases,avg,rank,position_rank
2014,José Bautista,TOR,"1B, OF",155,158,552,101,35,103,6,.286,11,"4,4"
2014,Carlos Gómez,MIL,OF,146,159,565,95,23,70,34,.281,15,6
2014,Adrián González,LAD,1B,159,161,578,79,27,114,0,.279,24,7
2014,Kyle Seager,SEA,3B,139,136,504,61,22,84,6,.270,59,7
2014,Brett Gardner,NYY,OF,23,23,85,18,6,10,3,.271,98,32
2014,Alcides Escobar,KC,SS,35,40,131,15,0,12,5,.305,115,6
2014,Chase Utley,PHI,2B,39,33,148,15,3,26,4,.223,124,12
2014,Yan Gomes,CLE,C,68,72,255,31,11,46,0,.282,138,4
2014,Pablo Sandoval,SF,3B,31,35,115,15,2,13,0,0.304347826086957,144,13
2014,Ben Zobrist,TB,"2B,SS,OF",65,65,245,37,2,27,6,.265,152,"14,11,42"
2014,Jhonny Peralta,STL,SS,27,26,103,13,3,13,1,.252,153,12
2014,Starlin Castro,CHC,SS,107,111,401,40,10,49,3,.277,155,13
2014,Carl Crawford,LAD,OF,22,34,83,17,3,17,4,.410,157,44
2014,Trevor Plouffe,MIN,3B,1,1,2,1,0,0,1,.500,169,15
2014,Russel Martin,PIT,C,14,14,52,4,3,12,0,.269,222,7
2014,Álex Rios,TEX,OF,117,126,440,45,4,47,17,.286,223,52
2014,Michael Morse,SF,"1B,OF",27,28,100,11,0,5,0,.280,243,"29,57"
2014,Nick Castellanos,DET,"3B,OF",11,11,41,5,1,6,0,.268,309,"27,67"
2014,Mark Teixeira,NYY,1B,5,4,19,2,1,2,0,.211,325,38
2014,Wilin Rosario,COL,C,19,16,70,9,1,9,0,.229,335,12
2014,David Freese,LAA,3B,5,4,20,3,0,1,0,.200,348,32
2014,Gregor Blanco,SF,OF,8,6,29,5,1,2,1,.207,355,77
2014,AJ Pollock,ARI,OF,12,13,45,7,0,2,2,.289,370,79
2014,Adam Lind,TOR,1B,21,30,80,16,2,16,0,.375,393,44
2014,Shin-Soo Choo,TEX,OF,85,81,317,48,9,30,3,.256,413,84
2014,Brandon Phillips,CIN,2B,89,91,334,33,7,40,1,.272,422,31
2014,Derek Jeter,NYY,SS,4,5,15,2,0,1,0,.333,459,25
2014,Jason Castro,HOU,C,52,44,195,19,6,27,0,.226,783,24
2014,Stephen Vogt,OAK,"C,1B,OF",3,1,11,0,0,0,0,.091,884,"26,55,88"
2014,Kennys Vargas,MIN,1B,21,17,77,5,3,12,0,.221,898,55
2014,Mookie Betts,BOS,"2B,SS,OF",15,17,56,11,0,3,2,.304,904,"42,33,91"
2014,Brett Lawrie,TOR,"2B,3B",11,10,43,6,2,3,0,.233,946,"44,50"
2014,Joey Votto,CIN,1B,49,48,184,27,6,20,1,.261,1043,62
2014,Kelly Johnson,"NYY, BOS,BAL","1B,2B,3B,OF",10,9,39,4,3,5,0,.231,1106,75