date,hits,at_bats,runs,home_runs,rbis,stolen_bases,month
3/30/2014,0,4,0,0,0,0,4
3/31/2014,6,26,3,1,3,0,4
4/1/2014,10,32,9,2,5,1,4
4/2/2014,7,37,2,2,4,0,4
4/3/2014,6,20,4,0,0,0,4
4/4/2014,11,35,3,1,4,0,4
4/5/2014,13,36,6,3,9,0,4
4/6/2014,8,40,4,1,4,0,4
4/7/2014,5,21,1,0,0,1,4
4/8/2014,13,36,10,2,3,0,4
4/9/2014,13,40,6,3,6,1,4
4/10/2014,9,19,4,1,5,0,4
4/11/2014,9,36,5,2,8,2,4
4/12/2014,11,38,5,3,6,0,4
4/13/2014,10,36,5,3,9,0,4
4/14/2014,3,21,2,1,2,0,4
4/15/2014,13,33,2,0,2,0,4
4/16/2014,10,41,3,2,5,0,4
4/17/2014,12,38,4,2,4,1,4
4/18/2014,10,37,7,1,4,1,4
4/19/2014,13,37,6,0,7,0,4
4/20/2014,5,29,2,0,2,0,4
4/21/2014,10,33,5,1,3,1,4
4/22/2014,9,35,6,1,3,1,4
4/23/2014,5,32,0,0,3,0,4
4/24/2014,9,25,4,1,3,0,4
4/25/2014,15,38,8,2,7,1,4
4/26/2014,9,34,6,2,6,1,4
4/27/2014,10,29,7,4,8,0,4
4/28/2014,2,9,0,0,0,0,4
4/29/2014,7,28,5,2,6,2,4
4/30/2014,10,35,4,1,4,0,4
5/1/2014,8,26,5,1,3,1,5
5/2/2014,13,36,6,2,7,1,5
5/3/2014,12,43,6,1,3,1,5
5/4/2014,10,41,7,1,5,0,5
5/5/2014,5,33,4,1,4,1,5
5/6/2014,13,36,4,0,1,0,5
5/7/2014,8,39,3,0,3,0,5
5/8/2014,5,23,5,1,5,0,5
5/9/2014,7,28,4,1,4,1,5
5/10/2014,9,34,5,2,4,0,5
5/11/2014,9,41,6,3,8,3,5
5/12/2014,10,37,3,1,7,0,5
5/13/2014,8,30,3,0,2,1,5
5/14/2014,5,21,2,1,2,0,5
5/15/2014,7,23,3,2,6,0,5
5/16/2014,5,28,1,0,1,0,5
5/17/2014,8,28,4,2,5,0,5
5/18/2014,11,31,5,1,7,0,5
5/19/2014,4,14,2,0,1,0,5
5/20/2014,13,38,1,1,7,0,5
5/21/2014,14,41,8,3,6,1,5
5/22/2014,6,26,6,2,6,0,5
5/23/2014,11,35,3,0,5,0,5
5/24/2014,14,41,2,0,2,1,5
5/25/2014,13,36,6,1,10,1,5
5/26/2014,8,36,3,0,3,1,5
5/27/2014,16,38,7,2,6,0,5
5/28/2014,5,28,5,1,3,2,5
5/29/2014,7,30,6,2,7,0,5
5/30/2014,6,30,3,2,4,0,5
5/31/2014,13,38,12,0,6,1,5
6/1/2014,9,28,1,0,0,1,6
6/2/2014,7,20,4,1,5,0,6
6/3/2014,6,39,5,0,7,1,6
6/4/2014,13,39,4,0,6,1,6
6/5/2014,9,29,8,2,5,2,6
6/6/2014,9,35,6,2,2,0,6
6/7/2014,5,37,3,0,1,0,6
6/8/2014,8,31,3,0,3,0,6
6/9/2014,7,27,1,0,2,0,6
6/10/2014,8,37,6,0,2,0,6
6/11/2014,12,37,3,0,7,1,6
6/12/2014,8,30,2,0,0,1,6
6/13/2014,8,34,4,1,7,0,6
6/14/2014,13,37,2,0,2,0,6
6/15/2014,12,38,5,1,7,1,6
6/16/2014,8,18,6,2,7,2,6
6/17/2014,10,37,4,0,6,0,6
6/18/2014,12,36,6,0,6,0,6
6/19/2014,5,26,3,0,2,0,6
6/20/2014,9,39,9,1,8,1,6
6/21/2014,11,37,5,0,3,0,6
6/22/2014,7,27,1,0,1,0,6
6/23/2014,6,20,5,1,3,0,6
6/24/2014,8,33,4,1,9,0,6
6/25/2014,14,35,7,2,7,1,6
6/26/2014,7,33,2,1,6,1,6
6/27/2014,11,32,3,0,3,0,6
6/28/2014,9,36,6,2,6,0,6
6/29/2014,11,34,7,1,4,0,6
6/30/2014,5,36,0,0,4,0,6
7/1/2014,11,33,6,3,8,1,7
7/2/2014,11,32,6,1,5,0,7
7/3/2014,4,22,1,1,2,0,7
7/4/2014,8,35,3,1,2,0,7
7/5/2014,10,37,2,0,3,2,7
7/6/2014,5,40,3,1,6,0,7
7/7/2014,7,36,4,1,4,0,7
7/8/2014,11,49,5,0,3,2,7
7/9/2014,9,40,2,1,3,0,7
7/10/2014,8,29,5,2,5,1,7
7/11/2014,9,34,2,0,5,2,7
7/12/2014,8,31,4,1,5,2,7
7/13/2014,9,33,5,0,5,1,7
7/18/2014,7,38,4,0,1,1,7
7/19/2014,12,35,5,0,1,0,7
7/20/2014,7,38,5,2,5,0,7
7/21/2014,13,31,4,0,5,1,7
7/22/2014,13,41,5,1,5,1,7
7/23/2014,5,33,4,2,4,0,7
7/24/2014,12,38,4,0,5,1,7
7/25/2014,14,38,7,3,10,0,7
7/26/2014,14,38,4,0,3,0,7
7/27/2014,8,38,5,1,3,2,7
7/28/2014,9,32,5,2,2,2,7
7/29/2014,18,44,12,3,10,0,7
7/30/2014,6,34,1,1,4,1,7
7/31/2014,6,19,3,1,7,0,7
8/1/2014,6,36,4,0,1,1,8
8/2/2014,12,42,4,0,5,3,8
8/3/2014,10,37,2,1,7,1,8
8/4/2014,4,22,2,1,2,1,8
8/5/2014,8,38,5,1,6,0,8
8/6/2014,17,41,9,4,10,2,8
8/7/2014,12,38,5,2,6,0,8
8/8/2014,14,36,6,1,4,0,8
8/9/2014,11,37,4,2,3,1,8
8/10/2014,11,42,5,1,8,1,8
8/11/2014,10,34,5,1,5,2,8
8/12/2014,9,36,4,1,4,0,8
8/13/2014,9,43,0,0,2,0,8
8/14/2014,7,29,2,0,5,0,8
8/15/2014,12,41,5,0,4,0,8
8/16/2014,10,41,7,2,5,0,8
8/17/2014,12,34,8,2,7,0,8
8/18/2014,2,11,0,0,0,0,8
8/19/2014,7,37,8,2,3,0,8
8/20/2014,11,32,7,2,8,0,8
8/21/2014,3,12,1,0,3,0,8
8/22/2014,4,38,4,0,4,0,8
8/23/2014,13,36,6,1,6,2,8
8/24/2014,11,28,8,0,4,0,8
8/25/2014,9,32,1,0,0,1,8
8/26/2014,8,38,9,1,3,1,8
8/27/2014,7,34,4,2,3,0,8
8/28/2014,2,12,3,0,1,0,8
8/29/2014,7,40,2,1,5,1,8
8/30/2014,10,39,5,2,7,1,8
8/31/2014,18,35,8,2,7,0,8
9/1/2014,7,28,2,0,3,0,9
9/2/2014,13,40,4,2,6,2,9
9/3/2014,15,44,8,3,7,0,9
9/4/2014,8,31,1,0,4,1,9
9/5/2014,9,34,6,3,6,0,9
9/6/2014,7,32,6,2,5,0,9
9/7/2014,14,38,6,5,12,1,9
9/8/2014,9,37,7,2,9,0,9
9/9/2014,11,39,3,1,11,0,9
9/10/2014,10,34,5,1,6,1,9
9/11/2014,9,32,4,1,5,0,9
9/12/2014,5,29,5,0,1,1,9
9/13/2014,7,39,4,0,8,0,9
9/14/2014,12,37,7,2,4,1,9
9/15/2014,9,33,4,0,6,1,9
9/16/2014,8,39,5,2,6,2,9
9/17/2014,10,33,1,0,3,0,9
9/18/2014,6,37,4,1,2,0,9
9/19/2014,9,37,6,2,9,0,9
9/20/2014,12,37,10,4,11,1,9
9/21/2014,9,37,1,0,3,0,9
9/22/2014,12,39,10,4,8,1,9
9/23/2014,9,37,6,1,3,1,9
9/24/2014,8,28,7,1,7,2,9
9/25/2014,9,29,4,0,6,1,9
9/26/2014,4,28,2,0,1,0,9
9/27/2014,8,28,8,2,2,1,9
9/28/2014,7,23,2,1,5,3,9