year,name,teams,positions,games,innings_pitched,wins,saves,strikeouts,era,whip,earned_runs,base_runners,rank
2022,Kenley Jansen,ARL,RP,64,63.000000000000,5,41,85,3.29,1.05,23,66,77
2022,Robbie Ray,SEA,SP,32,189.000000000000,12,0,212,3.71,1.19,78,225,164
2022,Luis Garcia,HOU,SP,28,157.333333333333,15,0,157,3.72,1.13,65,178,136
2022,Clayton Kershaw,LAD,SP,22,126.333333333333,12,0,137,2.28,0.94,32,119,49
2022,Adam Wainwright,STL,SP,30,184.000000000000,11,0,138,3.38,1.24,69,228,405
2022,Ryan Pressly,HOU,RP,48,46.333333333333,2,32,63,2.53,0.86,13,40,87
2022,Jordan Montgomery,STL,SP,22,125.000000000000,8,0,117,3.67,1.13,51,141,162
2022,Jeffrey Springs,TB,"SP,RP",18,92.666666666667,7,0,104,2.62,1.11,27,103,85
2022,Corey Kluber,TB,SP,18,95.333333333333,7,0,85,4.25,1.15,45,110,459
2022,Mark Melancon,ARI,RP,50,44.666666666667,3,16,31,5.24,1.59,26,71,585
2022,Martin Perez,TEX,"SP,RP",10,65.333333333333,3,0,60,3.72,1.42,27,93,153
2022,Adrian Houser,MIL,SP,9,46.333333333333,3,0,36,3.69,1.38,19,64,1012
2022,Alexis Diaz,CIN,RP,9,11.333333333333,2,4,13,2.38,0.97,3,11,84
2022,Reid Detmers,LAA,SP,4,21.666666666667,2,0,24,2.91,1.57,7,34,330
2022,Cristian Javier,HOU,"SP,RP",5,20.666666666667,2,0,22,3.92,1.26,9,26,40
2022,Rafael Montero,HOU,RP,6,6.000000000000,0,4,6,1.50,0.67,1,4,116
2022,Hyun Jin Ryu,TOR,SP,5,22.333333333333,2,0,13,6.45,1.39,16,31,770
2022,Will Smith,ATL/HOU,RP,5,5.000000000000,0,3,9,1.80,1.80,1,9,711
2022,Ian Kennedy,ARI,RP,3,3.000000000000,0,3,1,0.00,1.33,0,4,795
2022,Drew Rasmussen,TB,"SP,RP",1,7.000000000000,1,0,3,2.57,0.71,2,5,93
